[
    {
        "name":"sync_new_user",
        "params":[
            {
                "field":"user_id",
                "type": "integer", 
                "required": "True"
            },
            {
                "field":"username",
                "type": "string", 
                "required": "True"
            },
            {
                "field":"type",
                "type": "string", 
                "required": "True"
            }
        ],
        "steps":[
            {
                "main_function":"myproject.add_new_user", 
                "critical":"False"
            }
        ]
    },
    {
        "name":"sync_address",
        "params":[
            {
                "field":"id",
                "type": "integer", 
                "required": "True"
            },
            {
                "field":"address",
                "type": "string", 
                "required": "True"
            },
            {
                "field":"city",
                "type": "string", 
                "required": "True"
            },
            {
                "field":"zipcode",
                "type": "integer", 
                "required": "True"
            }
        ],
        "steps":[
            {
                "main_function":"myproject.sync_address", 
                "critical":"False"
            }
        ]
    }

]